# Blender3D MTL File: 
# Material Count: 137
newmtl sky_sky.png
Ns 0.000000
Ka 0.000000 0.000000 0.000000
Kd 0.793760 0.793760 0.793760
Ks 0.000000 0.000000 0.000000
Ni 1.500000
d 1.000000
illum 2
map_Kd sky.png


newmtl monitors_A_circle_A.png
Ns 7.843137
Ka 0.000000 0.000000 0.000000
Kd 0.470400 0.470400 0.470400
Ks 0.000000 0.000000 0.000000
Ni 1.500000
d 0.000000
illum 2
map_Kd circle_A.png


newmtl Material__11_Corridor11.png
Ns 7.843137
Ka 0.000000 0.000000 0.000000
Kd 0.470400 0.470400 0.470400
Ks 0.000000 0.000000 0.000000
Ni 1.500000
d 1.000000
illum 2
map_Kd Corridor11.png


newmtl Door_ma_door.png
Ns 7.843137
Ka 0.000000 0.000000 0.000000
Kd 0.470400 0.470400 0.470400
Ks 0.000000 0.000000 0.000000
Ni 1.500000
d 1.000000
illum 2
map_Kd door.png


newmtl Material__2543_paint.png
Ns 7.843137
Ka 0.000000 0.000000 0.000000
Kd 0.470400 0.470400 0.470400
Ks 0.000000 0.000000 0.000000
Ni 1.500000
d 0.000000
illum 2
map_Kd paint.png


newmtl Material__195_camera_1.png
Ns 7.843137
Ka 0.000000 0.000000 0.000000
Kd 0.470400 0.470400 0.470400
Ks 0.000000 0.000000 0.000000
Ni 1.500000
d 1.000000
illum 2
map_Kd camera_1.png


newmtl Standard_7_balcony_lm.png
Ns 7.843137
Ka 0.000000 0.000000 0.000000
Kd 0.470400 0.470400 0.470400
Ks 0.000000 0.000000 0.000000
Ni 1.500000
d 1.000000
illum 2
map_Kd balcony_lm.png


newmtl Material__2535_mantoilet.png
Ns 7.843137
Ka 0.000000 0.000000 0.000000
Kd 0.470400 0.470400 0.470400
Ks 0.000000 0.000000 0.000000
Ni 1.500000
d 0.000000
illum 2
map_Kd mantoilet.png


newmtl Material__2571_wood_1.png
Ns 7.843137
Ka 0.000000 0.000000 0.000000
Kd 0.470400 0.470400 0.470400
Ks 0.000000 0.000000 0.000000
Ni 1.500000
d 1.000000
illum 2
map_Kd wood_1.png


newmtl 03___Default
Ns 7.843137
Ka 0.000000 0.000000 0.000000
Kd 0.053360 0.053360 0.053360
Ks 0.000000 0.000000 0.000000
Ni 1.500000
d 1.000000
illum 2


newmtl Material__2969_Corridor11_02.png
Ns 7.843137
Ka 0.000000 0.000000 0.000000
Kd 0.470400 0.470400 0.470400
Ks 0.000000 0.000000 0.000000
Ni 1.500000
d 1.000000
illum 2
map_Kd Corridor11_02.png


newmtl monitor_monitor.png
Ns 7.843137
Ka 0.000000 0.000000 0.000000
Kd 0.470400 0.470400 0.470400
Ks 0.000000 0.000000 0.000000
Ni 1.500000
d 1.000000
illum 2
map_Kd monitor.png


newmtl partition_frame_partition_frame.png
Ns 9.803922
Ka 0.000000 0.000000 0.000000
Kd 0.470400 0.470400 0.470400
Ks 0.306000 0.306000 0.306000
Ni 1.500000
d 0.000000
illum 2
map_Kd partition_frame.png


newmtl 08___Default23_chair3_lm.png
Ns 7.843137
Ka 0.000000 0.000000 0.000000
Kd 0.800000 0.800000 0.800000
Ks 0.000000 0.000000 0.000000
Ni 1.500000
d 1.000000
illum 2
map_Kd chair3_lm.png


newmtl out_tree_03_out_tree_03.png
Ns 0.000000
Ka 0.000000 0.000000 0.000000
Kd 0.000000 0.000000 0.000000
Ks 0.000000 0.000000 0.000000
Ni 1.500000
d 0.000000
illum 2
map_Kd out_tree_03.png


newmtl Standard_61_rack2_lm.png
Ns 7.843137
Ka 0.000000 0.000000 0.000000
Kd 0.470400 0.470400 0.470400
Ks 0.000000 0.000000 0.000000
Ni 1.500000
d 1.000000
illum 2
map_Kd rack2_lm.png


newmtl Standard_5_chair2_lm.png
Ns 7.843137
Ka 0.000000 0.000000 0.000000
Kd 0.800000 0.800000 0.800000
Ks 0.000000 0.000000 0.000000
Ni 1.500000
d 1.000000
illum 2
map_Kd chair2_lm.png


newmtl stone_02_Stone_02.png
Ns 0.000000
Ka 0.000000 0.000000 0.000000
Kd 0.000000 0.000000 0.000000
Ks 0.000000 0.000000 0.000000
Ni 1.500000
d 1.000000
illum 2
map_Kd Stone_02.png


newmtl 02___Default
Ns 7.843137
Ka 0.000000 0.000000 0.000000
Kd 0.800000 0.800000 0.800000
Ks 0.000000 0.000000 0.000000
Ni 1.500000
d 1.000000
illum 2


newmtl Material__17_desk01.png
Ns 7.843137
Ka 0.000000 0.000000 0.000000
Kd 0.470400 0.470400 0.470400
Ks 0.000000 0.000000 0.000000
Ni 1.500000
d 0.000000
illum 2
map_Kd desk01.png


newmtl meetingroomB_meetingroomB.png
Ns 7.843137
Ka 0.000000 0.000000 0.000000
Kd 0.800000 0.800000 0.800000
Ks 0.000000 0.000000 0.000000
Ni 1.500000
d 1.000000
illum 2
map_Kd meetingroomB.png


newmtl abc_N_MeetinroomC_01.png
Ns 7.843137
Ka 0.000000 0.000000 0.000000
Kd 0.470400 0.470400 0.470400
Ks 0.000000 0.000000 0.000000
Ni 1.500000
d 0.000000
illum 2
map_Kd N_MeetinroomC_01.png


newmtl fabric_fabric.png
Ns 7.843137
Ka 0.000000 0.000000 0.000000
Kd 0.800000 0.800000 0.800000
Ks 0.000000 0.000000 0.000000
Ni 1.500000
d 1.000000
illum 2
map_Kd fabric.png


newmtl road_04_Road_02.png
Ns 7.843137
Ka 0.000000 0.000000 0.000000
Kd 0.470400 0.470400 0.470400
Ks 0.000000 0.000000 0.000000
Ni 1.500000
d 1.000000
illum 2
map_Kd Road_02.png


newmtl LapE_lapE.png
Ns 7.843137
Ka 0.000000 0.000000 0.000000
Kd 0.470400 0.470400 0.470400
Ks 0.000000 0.000000 0.000000
Ni 1.500000
d 0.000000
illum 2
map_Kd lapE.png


newmtl window_blind_ma_window_blind.png
Ns 7.843137
Ka 0.000000 0.000000 0.000000
Kd 0.470400 0.470400 0.470400
Ks 0.000000 0.000000 0.000000
Ni 1.500000
d 1.000000
illum 2
map_Kd window_blind.png


newmtl Material__197_rail_string2.png
Ns 7.843137
Ka 0.000000 0.000000 0.000000
Kd 0.470400 0.470400 0.470400
Ks 0.000000 0.000000 0.000000
Ni 1.500000
d 0.000000
illum 2
map_Kd rail_string2.png


newmtl Fence_ma
Ns 7.843137
Ka 0.000000 0.000000 0.000000
Kd 0.125520 0.125520 0.125520
Ks 0.000000 0.000000 0.000000
Ni 1.500000
d 1.000000
illum 2


newmtl Standard_4_PCmonitor.png
Ns 7.843137
Ka 0.000000 0.000000 0.000000
Kd 0.470400 0.470400 0.470400
Ks 0.000000 0.000000 0.000000
Ni 1.500000
d 1.000000
illum 2
map_Kd PCmonitor.png


newmtl Standard_614_rack3_lm.png
Ns 7.843137
Ka 0.000000 0.000000 0.000000
Kd 0.800000 0.800000 0.800000
Ks 0.000000 0.000000 0.000000
Ni 1.500000
d 1.000000
illum 2
map_Kd rack3_lm.png


newmtl Kitchen_kitchen.png
Ns 7.843137
Ka 0.000000 0.000000 0.000000
Kd 0.800000 0.800000 0.800000
Ks 0.000000 0.000000 0.000000
Ni 1.500000
d 1.000000
illum 2
map_Kd kitchen.png


newmtl Coridor12_coridor12.png
Ns 7.843137
Ka 0.000000 0.000000 0.000000
Kd 0.800000 0.800000 0.800000
Ks 0.000000 0.000000 0.000000
Ni 1.500000
d 1.000000
illum 2
map_Kd coridor12.png


newmtl corridor_11_door_4_corridor_11_door_4.pn
Ns 7.843137
Ka 0.000000 0.000000 0.000000
Kd 0.470400 0.470400 0.470400
Ks 0.000000 0.000000 0.000000
Ni 1.500000
d 0.000000
illum 2
map_Kd corridor_11_door 4.png


newmtl Material__2881_toilet_man_1.png
Ns 7.843137
Ka 0.000000 0.000000 0.000000
Kd 0.470400 0.470400 0.470400
Ks 0.000000 0.000000 0.000000
Ni 1.500000
d 1.000000
illum 2
map_Kd toilet_man_1.png


newmtl Material__2815_fence.png
Ns 7.843137
Ka 0.000000 0.000000 0.000000
Kd 0.470400 0.470400 0.470400
Ks 0.000000 0.000000 0.000000
Ni 1.500000
d 0.000000
illum 2
map_Kd fence.png


newmtl Coridor12_b_coridor12_b.png
Ns 7.843137
Ka 0.000000 0.000000 0.000000
Kd 0.800000 0.800000 0.800000
Ks 0.000000 0.000000 0.000000
Ni 1.500000
d 1.000000
illum 2
map_Kd coridor12_b.png


newmtl Material__2534_Corridor11_02.png
Ns 7.843137
Ka 0.000000 0.000000 0.000000
Kd 0.470400 0.470400 0.470400
Ks 0.000000 0.000000 0.000000
Ni 1.500000
d 1.000000
illum 2
map_Kd Corridor11_02.png


newmtl Material__2818_fence2.png
Ns 7.843137
Ka 0.000000 0.000000 0.000000
Kd 0.470400 0.470400 0.470400
Ks 0.000000 0.000000 0.000000
Ni 1.500000
d 0.000000
illum 2
map_Kd fence2.png


newmtl monitors_PCmonitor.png
Ns 7.843137
Ka 0.000000 0.000000 0.000000
Kd 0.470400 0.470400 0.470400
Ks 0.000000 0.000000 0.000000
Ni 1.500000
d 1.000000
illum 2
map_Kd PCmonitor.png


newmtl building_02_building_02.png
Ns 0.000000
Ka 0.000000 0.000000 0.000000
Kd 0.000000 0.000000 0.000000
Ks 0.000000 0.000000 0.000000
Ni 1.500000
d 0.000000
illum 2
map_Kd building_02.png


newmtl Material__25331221_corridor_11_door_1.pn
Ns 7.843137
Ka 0.000000 0.000000 0.000000
Kd 0.470400 0.470400 0.470400
Ks 0.000000 0.000000 0.000000
Ni 1.500000
d 1.000000
illum 2
map_Kd corridor_11_door 1.png


newmtl 08___D2efault224_table3_lm.png
Ns 7.843137
Ka 0.000000 0.000000 0.000000
Kd 0.800000 0.800000 0.800000
Ks 0.000000 0.000000 0.000000
Ni 1.500000
d 1.000000
illum 2
map_Kd table3_lm.png


newmtl N_MeetinroomC_02_N_MeetinroomC_02.png
Ns 7.843137
Ka 0.000000 0.000000 0.000000
Kd 0.470400 0.470400 0.470400
Ks 0.000000 0.000000 0.000000
Ni 1.500000
d 1.000000
illum 2
map_Kd N_MeetinroomC_02.png


newmtl Self_07_ma_Shelf_07.png
Ns 7.843137
Ka 0.000000 0.000000 0.000000
Kd 0.470400 0.470400 0.470400
Ks 0.000000 0.000000 0.000000
Ni 1.500000
d 1.000000
illum 2
map_Kd Shelf_07.png


newmtl Material__2841_meetingroomD_2.png
Ns 7.843137
Ka 0.000000 0.000000 0.000000
Kd 0.470400 0.470400 0.470400
Ks 0.000000 0.000000 0.000000
Ni 1.500000
d 0.000000
illum 2
map_Kd meetingroomD_2.png


newmtl Wall_5_ma_Wall_5.png
Ns 7.843137
Ka 0.000000 0.000000 0.000000
Kd 0.470400 0.470400 0.470400
Ks 0.000000 0.000000 0.000000
Ni 1.500000
d 1.000000
illum 2
map_Kd Wall_5.png


newmtl Screen_02_N_MeetinroomB_01.png
Ns 7.843137
Ka 0.000000 0.000000 0.000000
Kd 0.470400 0.470400 0.470400
Ks 0.000000 0.000000 0.000000
Ni 1.500000
d 1.000000
illum 2
map_Kd N_MeetinroomB_01.png


newmtl LabD_close_labD.png
Ns 7.843137
Ka 0.000000 0.000000 0.000000
Kd 0.800000 0.800000 0.800000
Ks 0.000000 0.000000 0.000000
Ni 1.500000
d 1.000000
illum 2
map_Kd labD.png


newmtl library221_library_221.png
Ns 7.843137
Ka 0.000000 0.000000 0.000000
Kd 0.800000 0.800000 0.800000
Ks 0.000000 0.000000 0.000000
Ni 1.500000
d 1.000000
illum 2
map_Kd library_221.png


newmtl Bigstair_bigstair.png
Ns 7.843137
Ka 0.000000 0.000000 0.000000
Kd 0.800000 0.800000 0.800000
Ks 0.000000 0.000000 0.000000
Ni 1.500000
d 1.000000
illum 2
map_Kd bigstair.png


newmtl rountable_roundtable_lm.png
Ns 7.843137
Ka 0.000000 0.000000 0.000000
Kd 0.800000 0.800000 0.800000
Ks 0.000000 0.000000 0.000000
Ni 1.500000
d 1.000000
illum 2
map_Kd roundtable_lm.png


newmtl building_01_building_01.png
Ns 0.000000
Ka 0.000000 0.000000 0.000000
Kd 0.000000 0.000000 0.000000
Ks 0.000000 0.000000 0.000000
Ni 1.500000
d 0.000000
illum 2
map_Kd building_01.png


newmtl Standard_6_rack1_lm.png
Ns 7.843137
Ka 0.000000 0.000000 0.000000
Kd 0.470400 0.470400 0.470400
Ks 0.000000 0.000000 0.000000
Ni 1.500000
d 1.000000
illum 2
map_Kd rack1_lm.png


newmtl Material__25331225_lapE.png
Ns 7.843137
Ka 0.000000 0.000000 0.000000
Kd 0.470400 0.470400 0.470400
Ks 0.000000 0.000000 0.000000
Ni 1.500000
d 0.000000
illum 2
map_Kd lapE.png


newmtl grass_grass.png
Ns 0.000000
Ka 0.000000 0.000000 0.000000
Kd 0.000000 0.000000 0.000000
Ks 0.000000 0.000000 0.000000
Ni 1.500000
d 1.000000
illum 2
map_Kd grass.png


newmtl Corridor11_02_Corridor11_02.png
Ns 7.843137
Ka 0.000000 0.000000 0.000000
Kd 0.470400 0.470400 0.470400
Ks 0.000000 0.000000 0.000000
Ni 1.500000
d 1.000000
illum 2
map_Kd Corridor11_02.png


newmtl Material__2667_Corridor12.png
Ns 7.843137
Ka 0.000000 0.000000 0.000000
Kd 0.470400 0.470400 0.470400
Ks 0.000000 0.000000 0.000000
Ni 1.500000
d 1.000000
illum 2
map_Kd Corridor12.png


newmtl Material__196_rail.png
Ns 7.843137
Ka 0.000000 0.000000 0.000000
Kd 0.470400 0.470400 0.470400
Ks 0.000000 0.000000 0.000000
Ni 1.500000
d 1.000000
illum 2
map_Kd rail.png


newmtl Standard_1
Ns 7.843137
Ka 0.000000 0.000000 0.000000
Kd 0.800000 0.800000 0.800000
Ks 0.000000 0.000000 0.000000
Ni 1.500000
d 0.760000
illum 2


newmtl wall_obj_wall_obj.png
Ns 7.843137
Ka 0.000000 0.000000 0.000000
Kd 0.470400 0.470400 0.470400
Ks 0.000000 0.000000 0.000000
Ni 1.500000
d 1.000000
illum 2
map_Kd wall_obj.png


newmtl building_05_building_05.png
Ns 0.000000
Ka 0.000000 0.000000 0.000000
Kd 0.000000 0.000000 0.000000
Ks 0.000000 0.000000 0.000000
Ni 1.500000
d 1.000000
illum 2
map_Kd building_05.png


newmtl 08___Default233_table2_lm.png
Ns 7.843137
Ka 0.000000 0.000000 0.000000
Kd 0.800000 0.800000 0.800000
Ks 0.000000 0.000000 0.000000
Ni 1.500000
d 1.000000
illum 2
map_Kd table2_lm.png


newmtl Material__190_proj_board.png
Ns 7.843137
Ka 0.000000 0.000000 0.000000
Kd 0.470400 0.470400 0.470400
Ks 0.000000 0.000000 0.000000
Ni 1.500000
d 1.000000
illum 2
map_Kd proj_board.png


newmtl Material__25332043_meetingroom226.png
Ns 7.843137
Ka 0.000000 0.000000 0.000000
Kd 0.800000 0.800000 0.800000
Ks 0.000000 0.000000 0.000000
Ni 1.500000
d 1.000000
illum 2
map_Kd meetingroom226.png


newmtl Material__16_color_W.png
Ns 7.843137
Ka 0.000000 0.000000 0.000000
Kd 0.470400 0.470400 0.470400
Ks 0.000000 0.000000 0.000000
Ni 1.500000
d 0.000000
illum 2
map_Kd color_W.png


newmtl Standard_12
Ns 7.843137
Ka 0.000000 0.000000 0.000000
Kd 0.800000 0.800000 0.800000
Ks 0.000000 0.000000 0.000000
Ni 1.500000
d 1.000000
illum 2


newmtl Wall_6_Wall_6.png
Ns 7.843137
Ka 0.000000 0.000000 0.000000
Kd 0.470400 0.470400 0.470400
Ks 0.000000 0.000000 0.000000
Ni 1.500000
d 1.000000
illum 2
map_Kd Wall_6.png


newmtl Material__2867_floor_1.png
Ns 7.843137
Ka 0.000000 0.000000 0.000000
Kd 0.470400 0.470400 0.470400
Ks 0.000000 0.000000 0.000000
Ni 1.500000
d 1.000000
illum 2
map_Kd floor_1.png


newmtl coridor11_floor_coridor11_floor.png
Ns 7.843137
Ka 0.000000 0.000000 0.000000
Kd 0.800000 0.800000 0.800000
Ks 0.000000 0.000000 0.000000
Ni 1.500000
d 1.000000
illum 2
map_Kd coridor11_floor.png


newmtl Material__200_door_grid.png
Ns 7.843137
Ka 0.000000 0.000000 0.000000
Kd 0.470400 0.470400 0.470400
Ks 0.000000 0.000000 0.000000
Ni 1.500000
d 0.000000
illum 2
map_Kd door_grid.png


newmtl 04___Default
Ns 35.294118
Ka 0.000000 0.000000 0.000000
Kd 0.006240 0.006240 0.006240
Ks 0.198000 0.198000 0.198000
Ni 1.500000
d 0.230000
illum 2


newmtl stone_01_Stone_01.png
Ns 0.000000
Ka 0.000000 0.000000 0.000000
Kd 0.000000 0.000000 0.000000
Ks 0.000000 0.000000 0.000000
Ni 1.500000
d 1.000000
illum 2
map_Kd Stone_01.png


newmtl Lap_E_lapE.png
Ns 7.843137
Ka 0.000000 0.000000 0.000000
Kd 0.470400 0.470400 0.470400
Ks 0.000000 0.000000 0.000000
Ni 1.500000
d 0.000000
illum 2
map_Kd lapE.png


newmtl Standard_2_chair_lm.png
Ns 7.843137
Ka 0.000000 0.000000 0.000000
Kd 0.800000 0.800000 0.800000
Ks 0.000000 0.000000 0.000000
Ni 1.500000
d 0.000000
illum 2
map_Kd chair_lm.png


newmtl objects_A_shadow_square.png
Ns 7.843137
Ka 0.000000 0.000000 0.000000
Kd 0.470560 0.470560 0.470560
Ks 0.000000 0.000000 0.000000
Ni 1.500000
d 0.000000
illum 2
map_Kd shadow_square.png


newmtl Coridor11_coridor11.png
Ns 7.843137
Ka 0.000000 0.000000 0.000000
Kd 0.800000 0.800000 0.800000
Ks 0.000000 0.000000 0.000000
Ni 1.500000
d 1.000000
illum 2
map_Kd coridor11.png


newmtl Coridor12_obj_coridor12_obj.png
Ns 7.843137
Ka 0.000000 0.000000 0.000000
Kd 0.800000 0.800000 0.800000
Ks 0.000000 0.000000 0.000000
Ni 1.500000
d 1.000000
illum 2
map_Kd coridor12_obj.png


newmtl road_Road_01.png
Ns 0.000000
Ka 0.000000 0.000000 0.000000
Kd 0.000000 0.000000 0.000000
Ks 0.000000 0.000000 0.000000
Ni 1.500000
d 1.000000
illum 2
map_Kd Road_01.png


newmtl Material__2714_elevators.png
Ns 7.843137
Ka 0.000000 0.000000 0.000000
Kd 0.470400 0.470400 0.470400
Ks 0.000000 0.000000 0.000000
Ni 1.500000
d 0.000000
illum 2
map_Kd elevators.png


newmtl labEF_labEF.png
Ns 7.843137
Ka 0.000000 0.000000 0.000000
Kd 0.470400 0.470400 0.470400
Ks 0.000000 0.000000 0.000000
Ni 1.500000
d 0.000000
illum 2
map_Kd labEF.png


newmtl Coridor11_obj_coridor11_obj.png
Ns 7.843137
Ka 0.000000 0.000000 0.000000
Kd 0.800000 0.800000 0.800000
Ks 0.000000 0.000000 0.000000
Ni 1.500000
d 1.000000
illum 2
map_Kd coridor11_obj.png


newmtl Material__2865_toilet_woman_1.png
Ns 7.843137
Ka 0.000000 0.000000 0.000000
Kd 0.470400 0.470400 0.470400
Ks 0.000000 0.000000 0.000000
Ni 1.500000
d 1.000000
illum 2
map_Kd toilet_woman_1.png


newmtl Material__192_cabinet.png
Ns 7.843137
Ka 0.000000 0.000000 0.000000
Kd 0.470400 0.470400 0.470400
Ks 0.000000 0.000000 0.000000
Ni 1.500000
d 1.000000
illum 2
map_Kd cabinet.png


newmtl Printer_ma_puri.png
Ns 7.843137
Ka 0.000000 0.000000 0.000000
Kd 0.470560 0.470560 0.470560
Ks 0.000000 0.000000 0.000000
Ni 1.500000
d 1.000000
illum 2
map_Kd puri.png


newmtl Material__20_bookshelf.png
Ns 7.843137
Ka 0.000000 0.000000 0.000000
Kd 0.470400 0.470400 0.470400
Ks 0.000000 0.000000 0.000000
Ni 1.500000
d 1.000000
illum 2
map_Kd bookshelf.png


newmtl building_06_building_06.png
Ns 0.000000
Ka 0.000000 0.000000 0.000000
Kd 0.000000 0.000000 0.000000
Ks 0.000000 0.000000 0.000000
Ni 1.500000
d 0.000000
illum 2
map_Kd building_06.png


newmtl Material__177_rail_string.png
Ns 7.843137
Ka 0.000000 0.000000 0.000000
Kd 0.470400 0.470400 0.470400
Ks 0.000000 0.000000 0.000000
Ni 1.500000
d 0.000000
illum 2
map_Kd rail_string.png


newmtl Material__12_Corridor12.png
Ns 7.843137
Ka 0.000000 0.000000 0.000000
Kd 0.470400 0.470400 0.470400
Ks 0.000000 0.000000 0.000000
Ni 1.500000
d 1.000000
illum 2
map_Kd Corridor12.png


newmtl Material__2541_paint.png
Ns 7.843137
Ka 0.000000 0.000000 0.000000
Kd 0.470400 0.470400 0.470400
Ks 0.000000 0.000000 0.000000
Ni 1.500000
d 0.000000
illum 2
map_Kd paint.png


newmtl labG_labG.png
Ns 7.843137
Ka 0.000000 0.000000 0.000000
Kd 0.800000 0.800000 0.800000
Ks 0.000000 0.000000 0.000000
Ni 1.500000
d 1.000000
illum 2
map_Kd labG.png


newmtl Standard_16_meetingroomc.png
Ns 7.843137
Ka 0.000000 0.000000 0.000000
Kd 0.800000 0.800000 0.800000
Ks 0.000000 0.000000 0.000000
Ni 1.500000
d 1.000000
illum 2
map_Kd meetingroomc.png


newmtl Material__25331222_door_4.png
Ns 7.843137
Ka 0.000000 0.000000 0.000000
Kd 0.470400 0.470400 0.470400
Ks 0.000000 0.000000 0.000000
Ni 1.500000
d 1.000000
illum 2
map_Kd door_4.png


newmtl Material__2713_corridor_11_door_4.pn
Ns 7.843137
Ka 0.000000 0.000000 0.000000
Kd 0.470400 0.470400 0.470400
Ks 0.000000 0.000000 0.000000
Ni 1.500000
d 0.000000
illum 2
map_Kd corridor_11_door 4.png


newmtl 08___Default2_shelf1_lm.png
Ns 7.843137
Ka 0.000000 0.000000 0.000000
Kd 0.800000 0.800000 0.800000
Ks 0.000000 0.000000 0.000000
Ni 1.500000
d 1.000000
illum 2
map_Kd shelf1_lm.png


newmtl mirror_ma
Ns 7.843137
Ka 0.000000 0.000000 0.000000
Kd 0.640000 0.752960 0.800000
Ks 0.000000 0.000000 0.000000
Ni 1.500000
d 1.000000
illum 2


newmtl meetingroom226_meetingroom226.png
Ns 7.843137
Ka 0.000000 0.000000 0.000000
Kd 0.800000 0.800000 0.800000
Ks 0.000000 0.000000 0.000000
Ni 1.500000
d 1.000000
illum 2
map_Kd meetingroom226.png


newmtl Material__25332557_N_MeetinroomB_05.png
Ns 7.843137
Ka 0.000000 0.000000 0.000000
Kd 0.470400 0.470400 0.470400
Ks 0.000000 0.000000 0.000000
Ni 1.500000
d 0.000000
illum 2
map_Kd N_MeetinroomB_05.png


newmtl Wall_02_ma
Ns 7.843137
Ka 0.000000 0.000000 0.000000
Kd 0.800000 0.800000 0.800000
Ks 0.000000 0.000000 0.000000
Ni 1.500000
d 1.000000
illum 2


newmtl out_tree_07_out_tree_01.png
Ns 0.000000
Ka 0.000000 0.000000 0.000000
Kd 0.000000 0.000000 0.000000
Ks 0.000000 0.000000 0.000000
Ni 1.500000
d 0.000000
illum 2
map_Kd out_tree_01.png


newmtl curtain_ma_curtain.png
Ns 7.843137
Ka 0.000000 0.000000 0.000000
Kd 0.470400 0.470400 0.470400
Ks 0.000000 0.000000 0.000000
Ni 1.500000
d 1.000000
illum 2
map_Kd curtain.png


newmtl Self_06_ma_Shelf_06.png
Ns 7.843137
Ka 0.000000 0.000000 0.000000
Kd 0.470400 0.470400 0.470400
Ks 0.000000 0.000000 0.000000
Ni 1.500000
d 1.000000
illum 2
map_Kd Shelf_06.png


newmtl Material__2687_corridor_11_board1.pn
Ns 7.843137
Ka 0.000000 0.000000 0.000000
Kd 0.470400 0.470400 0.470400
Ks 0.000000 0.000000 0.000000
Ni 1.500000
d 1.000000
illum 2
map_Kd corridor_11_board1.png


newmtl Material__15_Corridor11_02.png
Ns 7.843137
Ka 0.000000 0.000000 0.000000
Kd 0.470400 0.470400 0.470400
Ks 0.000000 0.000000 0.000000
Ni 1.500000
d 1.000000
illum 2
map_Kd Corridor11_02.png


newmtl Material__2666_Corridor11.png
Ns 7.843137
Ka 0.000000 0.000000 0.000000
Kd 0.000000 0.000000 0.000000
Ks 0.000000 0.000000 0.000000
Ni 1.500000
d 1.000000
illum 2
map_Kd Corridor11.png


newmtl Material__2942_corridor_11_door_1.pn
Ns 7.843137
Ka 0.000000 0.000000 0.000000
Kd 0.470400 0.470400 0.470400
Ks 0.000000 0.000000 0.000000
Ni 1.500000
d 1.000000
illum 2
map_Kd corridor_11_door 1.png


newmtl door_door.png
Ns 7.843137
Ka 0.000000 0.000000 0.000000
Kd 0.470400 0.470400 0.470400
Ks 0.000000 0.000000 0.000000
Ni 1.500000
d 1.000000
illum 2
map_Kd door.png


newmtl Coridor11_b_coridor11_b.png
Ns 7.843137
Ka 0.000000 0.000000 0.000000
Kd 0.800000 0.800000 0.800000
Ks 0.000000 0.000000 0.000000
Ni 1.500000
d 1.000000
illum 2
map_Kd coridor11_b.png


newmtl smallshelf_smallshelf.png
Ns 7.843137
Ka 0.000000 0.000000 0.000000
Kd 0.470400 0.470400 0.470400
Ks 0.000000 0.000000 0.000000
Ni 1.500000
d 1.000000
illum 2
map_Kd smallshelf.png


newmtl Material__25331226_N_MeetinroomC_02.png
Ns 7.843137
Ka 0.000000 0.000000 0.000000
Kd 0.470400 0.470400 0.470400
Ks 0.000000 0.000000 0.000000
Ni 1.500000
d 1.000000
illum 2
map_Kd N_MeetinroomC_02.png


newmtl Material__10_smallshelf.png
Ns 7.843137
Ka 0.000000 0.000000 0.000000
Kd 0.470400 0.470400 0.470400
Ks 0.000000 0.000000 0.000000
Ni 1.500000
d 1.000000
illum 2
map_Kd smallshelf.png


newmtl Stair_stair.png
Ns 7.843137
Ka 0.000000 0.000000 0.000000
Kd 0.800000 0.800000 0.800000
Ks 0.000000 0.000000 0.000000
Ni 1.500000
d 1.000000
illum 2
map_Kd stair.png


newmtl 08___D2efault2_sofa_lm.png
Ns 7.843137
Ka 0.000000 0.000000 0.000000
Kd 0.800000 0.800000 0.800000
Ks 0.000000 0.000000 0.000000
Ni 1.500000
d 1.000000
illum 2
map_Kd sofa_lm.png


newmtl Material__216_door_2.png
Ns 7.843137
Ka 0.000000 0.000000 0.000000
Kd 0.470400 0.470400 0.470400
Ks 0.000000 0.000000 0.000000
Ni 1.500000
d 1.000000
illum 2
map_Kd door_2.png


newmtl Material__2_desk.png
Ns 7.843137
Ka 0.000000 0.000000 0.000000
Kd 0.470400 0.470400 0.470400
Ks 0.000000 0.000000 0.000000
Ni 1.500000
d 1.000000
illum 2
map_Kd desk.png


newmtl partition_table_partition_table.png
Ns 7.843137
Ka 0.000000 0.000000 0.000000
Kd 0.800000 0.800000 0.800000
Ks 0.000000 0.000000 0.000000
Ni 1.500000
d 1.000000
illum 2
map_Kd partition_table.png


newmtl door_05_door.png
Ns 7.843137
Ka 0.000000 0.000000 0.000000
Kd 0.470400 0.470400 0.470400
Ks 0.000000 0.000000 0.000000
Ni 1.500000
d 1.000000
illum 2
map_Kd door.png


newmtl Material__198_speaker.png
Ns 41.176471
Ka 0.000000 0.000000 0.000000
Kd 0.470400 0.470400 0.470400
Ks 0.180000 0.180000 0.180000
Ni 1.500000
d 1.000000
illum 2
map_Kd speaker.png


newmtl Material__13_Corridor12.png
Ns 7.843137
Ka 0.000000 0.000000 0.000000
Kd 0.800000 0.800000 0.800000
Ks 0.000000 0.000000 0.000000
Ni 1.500000
d 1.000000
illum 2
map_Kd Corridor12.png


newmtl mantoilet_mantoilet.png
Ns 7.843137
Ka 0.000000 0.000000 0.000000
Kd 0.470560 0.470560 0.470560
Ks 0.000000 0.000000 0.000000
Ni 1.500000
d 0.000000
illum 2
map_Kd mantoilet.png


newmtl Material__2539_desk02.png
Ns 7.843137
Ka 0.000000 0.000000 0.000000
Kd 0.470400 0.470400 0.470400
Ks 0.000000 0.000000 0.000000
Ni 1.500000
d 1.000000
illum 2
map_Kd desk02.png


newmtl building_04_building_04.png
Ns 0.000000
Ka 0.000000 0.000000 0.000000
Kd 0.000000 0.000000 0.000000
Ks 0.000000 0.000000 0.000000
Ni 1.500000
d 1.000000
illum 2
map_Kd building_04.png


newmtl Material__203_wood_bar.png
Ns 7.843137
Ka 0.000000 0.000000 0.000000
Kd 0.470400 0.470400 0.470400
Ks 0.000000 0.000000 0.000000
Ni 1.500000
d 0.000000
illum 2
map_Kd wood_bar.png


newmtl 08___D2efault233_rack4_lm.png
Ns 7.843137
Ka 0.000000 0.000000 0.000000
Kd 0.800000 0.800000 0.800000
Ks 0.000000 0.000000 0.000000
Ni 1.500000
d 1.000000
illum 2
map_Kd rack4_lm.png


newmtl Material__201_monitor.png
Ns 7.843137
Ka 0.000000 0.000000 0.000000
Kd 0.470400 0.470400 0.470400
Ks 0.000000 0.000000 0.000000
Ni 1.500000
d 1.000000
illum 2
map_Kd monitor.png


newmtl Material__25332436_circle_A.png
Ns 7.843137
Ka 0.000000 0.000000 0.000000
Kd 0.470400 0.470400 0.470400
Ks 0.000000 0.000000 0.000000
Ni 1.500000
d 0.000000
illum 2
map_Kd circle_A.png


newmtl Material__25331233_N_MeetinroomC_02.png
Ns 7.843137
Ka 0.000000 0.000000 0.000000
Kd 0.470400 0.470400 0.470400
Ks 0.000000 0.000000 0.000000
Ni 1.500000
d 1.000000
illum 2
map_Kd N_MeetinroomC_02.png


newmtl Name_ma_corridor_11_door_3.pn
Ns 7.843137
Ka 0.000000 0.000000 0.000000
Kd 0.470400 0.470400 0.470400
Ks 0.000000 0.000000 0.000000
Ni 1.500000
d 0.000000
illum 2
map_Kd corridor_11_door 3.png


newmtl Material__2547_paint_W.png
Ns 7.843137
Ka 0.000000 0.000000 0.000000
Kd 0.470400 0.470400 0.470400
Ks 0.000000 0.000000 0.000000
Ni 1.500000
d 1.000000
illum 2
map_Kd paint_W.png


newmtl afff_lapE.png
Ns 7.843137
Ka 0.000000 0.000000 0.000000
Kd 0.470400 0.470400 0.470400
Ks 0.000000 0.000000 0.000000
Ni 1.500000
d 0.000000
illum 2
map_Kd lapE.png


newmtl 10___Default_shadow_square.png
Ns 7.843137
Ka 0.000000 0.000000 0.000000
Kd 0.470560 0.470560 0.470560
Ks 0.000000 0.000000 0.000000
Ni 1.500000
d 0.000000
illum 2
map_Kd shadow_square.png


newmtl Material__1891_curtain_01.png
Ns 7.843137
Ka 0.000000 0.000000 0.000000
Kd 0.470400 0.470400 0.470400
Ks 0.000000 0.000000 0.000000
Ni 1.500000
d 0.000000
illum 2
map_Kd curtain_01.png


newmtl 08___D2efault22_sofa2_lm.png
Ns 7.843137
Ka 0.000000 0.000000 0.000000
Kd 0.800000 0.800000 0.800000
Ks 0.000000 0.000000 0.000000
Ni 1.500000
d 1.000000
illum 2
map_Kd sofa2_lm.png


newmtl wire_067054054
Ns 29.411765
Ka 0.000000 0.000000 0.000000
Kd 0.210160 0.169440 0.169440
Ks 0.175000 0.175000 0.175000
Ni 1.000000
d 1.000000
illum 2


newmtl Material__2538_mantoilet.png
Ns 7.843137
Ka 0.000000 0.000000 0.000000
Kd 0.470400 0.470400 0.470400
Ks 0.000000 0.000000 0.000000
Ni 1.500000
d 0.000000
illum 2
map_Kd mantoilet.png


newmtl Material__25331224_dumping_ground_1.png
Ns 7.843137
Ka 0.000000 0.000000 0.000000
Kd 0.470400 0.470400 0.470400
Ks 0.000000 0.000000 0.000000
Ni 1.500000
d 1.000000
illum 2
map_Kd dumping_ground_1.png


newmtl building_03_building_03.png
Ns 0.000000
Ka 0.000000 0.000000 0.000000
Kd 0.000000 0.000000 0.000000
Ks 0.000000 0.000000 0.000000
Ni 1.500000
d 1.000000
illum 2
map_Kd building_03.png


newmtl Material__25331235_openceiling_2.png
Ns 7.843137
Ka 0.000000 0.000000 0.000000
Kd 0.470400 0.470400 0.470400
Ks 0.000000 0.000000 0.000000
Ni 1.500000
d 1.000000
illum 2
map_Kd openceiling_2.png


