/*******************************************************************************
*                                                                              *
*                               Kyoto University                               *
*                               Okuno laboratory                               *
*                                Boomer project                                *
*                                                                              *
*******************************************************************************/

/// @mainpage Boomer documentation
/// 
/// 

/******************************************************************************/

