<robot name="hearbo"
       xmlns:xacro="http://ros.org/wiki/xacro">
       
  <xacro:property name="D2R" value="0.01745" />

  <xacro:property name="cart_dz" value="0.45" />
  <xacro:property name="cart_block_dz" value="0.07" />
  <xacro:property name="cart_block2_dz" value="0.12" />
  <xacro:property name="cart_radius" value="0.33" />
  
  <xacro:property name="trunk_cylinder_dz" value="0.16" /><!--height of cylindrical part of trunk-->
  <xacro:property name="trunk_cylinder_radius" value="0.09" />
  
  <xacro:property name="trunk_xoffset" value="0.18" />
  <xacro:property name="trunk_dx" value="0.23" />
  <xacro:property name="trunk_dy" value="0.305" />
  <xacro:property name="trunk_dz" value="0.36" />
  <xacro:property name="trunk_corner_radius" value="0.02" />
  
  <xacro:property name="trunk_lower_dx" value="0.20" />
  <xacro:property name="trunk_lower_dy" value="0.21" />
  <xacro:property name="trunk_lower_dz" value="0.10" />

  <xacro:property name="shoulder_zoffset" value="0.535" /><!--from top of cart-->
  <xacro:property name="shoulder_dx" value="0.12" />
  <xacro:property name="shoulder_dy" value="0.22" /><!--from the center of the body-->
  <xacro:property name="shoulder_dz" value="0.09" />

  <xacro:property name="neck_radius" value="0.05" />
  <xacro:property name="neck_dz" value="0.21" /><!--distance from top of trunk to top of head-->
  
  <xacro:property name="head_radius" value="0.1" />

  <xacro:property name="eye_height" value="0.015" />  <!--From the center of the head sphere-->
  <xacro:property name="eye_length" value="0.1" />  <!--From the center of the head sphere-->
  <xacro:property name="eye_radius" value="0.0225" />
  <xacro:property name="eye_separation" value="0.08" />

  <xacro:property name="arm_length" value="0.25" />
  <xacro:property name="arm_radius" value="0.05" />
  
  <xacro:property name="elbow_joint_xoffset" value="0.02" />
  <xacro:property name="elbow_joint_radius" value="0.035" />

  <xacro:property name="forearm_length" value="0.2195" />
  <xacro:property name="forearm_radius" value="0.05" />
  
  <xacro:property name="wrist_joint_radius" value="0.02" />
  
  <xacro:property name="hand_dx" value="0.075" />
  <xacro:property name="hand_dy" value="0.07" />
  <xacro:property name="hand_dz" value="0.11" />

  <xacro:property name="palm_dx" value="0.1" />
  <xacro:property name="palm_dy" value="0.04" />
  <xacro:property name="palm_dz" value="0.12" />
  <xacro:property name="palm_roll" value="${15*D2R}" />
  
  <xacro:property name="finger_dx" value="0.01" />
  <xacro:property name="finger_dy" value="0.015" />
  <xacro:property name="phalange1_dz" value="0.04" />
  <xacro:property name="phalange2_dz" value="0.035" />
  <xacro:property name="guard_dz" value="0.035" />
  <xacro:property name="guard_radius" value="0.04" />
  
  <xacro:property name="scanner_dx" value="0.17" /><!--measured from the edge of the cart-->
  <xacro:property name="scanner_dy" value="0.15" />
  <xacro:property name="scanner_z_top" value="0.52" /><!--measured from ground-->
  <xacro:property name="scanner_z_bottom" value="0.37" /><!--measured from ground-->
  
  <xacro:property name="camera_dx" value="0.18" /><!--measured from trunk-->
  <xacro:property name="camera_dy" value="0.2" />
  <xacro:property name="camera_z_top" value="0.55" /><!--measured from cart-->
  <xacro:property name="camera_z_bottom" value="0.35" /><!--measured from cart-->

  
  <!-- If the link masses are changed, any PID controller used to control the joint velocities will need to be retuned. -->
  <xacro:property name="default_link_mass" value="0.0000001" />
  <xacro:property name="default_joint_damping" value="100000000000000.0" />
  <xacro:property name="default_joint_friction" value="100000000000000.0" />




  <xacro:property name="nr" value="0" />
  <xacro:property name="np" value="0" />
  <xacro:property name="ny" value="0" />
  
  <!--
  <xacro:property name="la1" value="-0.6" />
  <xacro:property name="la2" value="0.3" />
  <xacro:property name="la3" value="0" />
  <xacro:property name="la4" value="-0.6" />
  <xacro:property name="la5" value="0" />
  <xacro:property name="la6" value="0" />arm_radius
  <xacro:property name="la7" value="0" />

  <xacro:property name="ra1" value="-0.6" />
  <xacro:property name="ra2" value="0.3" />
  <xacro:property name="ra3" value="0" />
  <xacro:property name="ra4" value="-0.6" />
  <xacro:property name="ra5" value="0" />
  <xacro:property name="ra6" value="0" />
  <xacro:property name="ra7" value="0" />-->
  
  <!-- Setting any of the laX or raX angle values to non-zero offsets the zero point of the joint-->
  <xacro:property name="la1" value="0" />
  <xacro:property name="la2" value="0" />
  <xacro:property name="la3" value="0" />
  <xacro:property name="la4" value="0" />
  <xacro:property name="la5" value="0" />
  <xacro:property name="la6" value="0" />
  <xacro:property name="la7" value="0" />

  <xacro:property name="ra1" value="0" />
  <xacro:property name="ra2" value="0" />
  <xacro:property name="ra3" value="0" />
  <xacro:property name="ra4" value="0" />
  <xacro:property name="ra5" value="0" />
  <xacro:property name="ra6" value="0" />
  <xacro:property name="ra7" value="0" />
  
  <xacro:property name="lh00" value="${45*D2R}" />
  <xacro:property name="lh01" value="${10*D2R}" />
  <xacro:property name="lh02" value="${0*D2R}" />
  <xacro:property name="lh10" value="${10*D2R}" />
  <xacro:property name="lh11" value="${10*D2R}" />
  <xacro:property name="lh20" value="${10*D2R}" />
  <xacro:property name="lh21" value="${10*D2R}" />
  <xacro:property name="lh30" value="${10*D2R}" />
  <xacro:property name="lh31" value="${10*D2R}" />
  <xacro:property name="lh40" value="${10*D2R}" />
  <xacro:property name="lh41" value="${10*D2R}" />
  <xacro:property name="lh50" value="${10*D2R}" />
  <xacro:property name="lh51" value="${10*D2R}" />
  
  <xacro:property name="rh00" value="0" />
  <xacro:property name="rh01" value="0" />
  <xacro:property name="rh10" value="${10*D2R}" />
  <xacro:property name="rh11" value="${10*D2R}" />
  <xacro:property name="rh20" value="${10*D2R}" />
  <xacro:property name="rh21" value="${10*D2R}" />
  <xacro:property name="rh30" value="${10*D2R}" />
  <xacro:property name="rh31" value="${10*D2R}" />
  <xacro:property name="rh40" value="${10*D2R}" />
  <xacro:property name="rh41" value="${10*D2R}" />
  <xacro:property name="rh50" value="${10*D2R}" />
  <xacro:property name="rh51" value="${10*D2R}" />

  <!-- limit angles -->
  
  <xacro:property name="neck1_min" value="${-85*D2R}" />
  <xacro:property name="neck1_max" value="${ 85*D2R}" />
  <xacro:property name="neck2_min" value="${-30*D2R}" />
  <xacro:property name="neck2_max" value="${ 30*D2R}" />
  <xacro:property name="neck3_min" value="${-15*D2R}" />
  <xacro:property name="neck3_max" value="${ 15*D2R}" />
  
  <xacro:property name="arm1_min" value="${-130*D2R}" />
  <xacro:property name="arm1_max" value="${  40*D2R}" />
  <xacro:property name="arm2_min" value="${   0*D2R}" />
  <xacro:property name="arm2_max" value="${ 110*D2R}" />
  <xacro:property name="arm3_min" value="${ -80*D2R}" />
  <xacro:property name="arm3_max" value="${  80*D2R}" />
  <xacro:property name="arm4_min" value="${-120*D2R}" />
  <xacro:property name="arm4_max" value="${ -10*D2R}" />
  <xacro:property name="arm5_min" value="${ -80*D2R}" />
  <xacro:property name="arm5_max" value="${  80*D2R}" />
  <xacro:property name="arm6_min" value="${ -80*D2R}" />
  <xacro:property name="arm6_max" value="${  80*D2R}" />
  <xacro:property name="arm7_min" value="${ -80*D2R}" />
  <xacro:property name="arm7_max" value="${  80*D2R}" />
  
  <xacro:property name="max_effort"   value="1e100" />
  <xacro:property name="max_velocity" value="1e100" />

  <xacro:property name="neck_z_extention" value="0.1" />
  <xacro:property name="cart_block_dx" value="${cart_radius*2-trunk_xoffset}" />
  <xacro:property name="cart_block2_dx" value="${cart_radius}" />
  <xacro:property name="shoulder_joint_radius" value="${shoulder_dz/2}" />
  <xacro:property name="scanner_dz" value="${scanner_z_top - scanner_z_bottom}" />
  <xacro:property name="camera_dz" value="${camera_z_top - camera_z_bottom}" />
  <xacro:property name="finger_spacing" value="0.017" />
  <xacro:property name="finger_offset" value="${palm_dx/2-(palm_dx-(finger_dx*4+finger_spacing*3))/2 - finger_dx/2}" />
  
  <material name="LightGray"> <color rgba="0.7 0.7 0.7 1.0"/></material>
  <material name="MidGray"> <color rgba="0.55 0.55 0.55 1.0"/></material>
  <material name="DarkGray"> <color rgba="0.1 0.1 0.1 1.0"/></material>
  <material name="Orange"> <color rgba="1.0 0.5 0.0 1.0"/></material>
  <material name="Red">  <color rgba="0.9 0.1 0.1 1.0"/></material>
  <material name="Green"><color rgba="0.1 0.9 0.1 1.0"/></material>
  <material name="Blue"> <color rgba="0.1 0.1 0.9 1.0"/></material>


  <xacro:massive_link_cylinder_z name="cart" length="${cart_dz}" radius="${cart_radius}" mass="100" color="DarkGray" padding="0.0" />
  <gazebo reference="cart"><material>Gazebo/Yellow</material></gazebo>
  
  <xacro:link_box_z name="cart_block" dx="${cart_block_dx}" dy="${cart_radius*2}" dz="${cart_block_dz}" color="DarkGray" padding="0.0" />
  <xacro:fixed_joint name="fixed1" parent="cart" child="cart_block" xyz="${-cart_radius+cart_block_dx/2} 0 ${cart_dz}" rpy="0 0 0" />
  <gazebo reference="cart_block"><material>Gazebo/Yellow</material></gazebo>
  
  <xacro:link_box_z name="cart_block2" dx="${cart_block2_dx}" dy="${cart_radius*2}" dz="${cart_block2_dz}" color="DarkGray" padding="0.0" />
  <xacro:fixed_joint name="fixed11" parent="cart" child="cart_block2" xyz="${-cart_radius+cart_block2_dx/2} 0 ${cart_dz}" rpy="0 0 0" />
  <gazebo reference="cart_block"><material>Gazebo/Yellow</material></gazebo>

  <xacro:link_cylinder_z name="trunk_cylinder" radius="${trunk_cylinder_radius}" length="${trunk_cylinder_dz}" color="Blue" padding="0.0" />
  <xacro:fixed_joint name="fixed2" parent="cart" child="trunk_cylinder" xyz="${cart_radius-trunk_xoffset} 0 ${cart_dz}" rpy="0 0 0" />
  <gazebo reference="trunk_cylinder"><material>Gazebo/Black</material></gazebo>

  <xacro:link_box_z name="trunk_lower" dx="${trunk_lower_dx}" dy="${trunk_lower_dy}" dz="${trunk_lower_dz}" color="Blue" padding="0.0" />
  <xacro:fixed_joint name="fixed35" parent="trunk_cylinder" child="trunk_lower" xyz="0 0 ${trunk_cylinder_dz}" rpy="0 0 0" />
  <gazebo reference="trunk"><material>Gazebo/Black</material></gazebo>


  <xacro:link_box_z name="trunk" dx="${trunk_dx}" dy="${trunk_dy-trunk_corner_radius*2}" dz="${trunk_dz}" color="Blue" padding="0.0" />
  <xacro:fixed_joint name="fixed3" parent="trunk_lower" child="trunk" xyz="0 0 ${trunk_lower_dz}" rpy="0 0 0" />
  <gazebo reference="trunk"><material>Gazebo/Black</material></gazebo>
  
  <xacro:link_cylinder_z name="trunk_corner1" radius="${trunk_corner_radius}" length="${trunk_dz}" color="Blue" padding="0.0" />
  <xacro:fixed_joint name="fixed31" parent="trunk" child="trunk_corner1" xyz="${trunk_dx/2-trunk_corner_radius} ${trunk_dy/2-trunk_corner_radius} 0" rpy="0 0 0" />
  <xacro:link_cylinder_z name="trunk_corner2" radius="${trunk_corner_radius}" length="${trunk_dz}" color="Blue" padding="0.0" />
  <xacro:fixed_joint name="fixed32" parent="trunk" child="trunk_corner2" xyz="${trunk_dx/2-trunk_corner_radius} ${-trunk_dy/2+trunk_corner_radius} 0" rpy="0 0 0" />
  
  <xacro:link_box_z name="trunk_filler" dx="${trunk_dx-trunk_corner_radius}" dy="${trunk_dy}" dz="${trunk_dz}" color="Blue" padding="0.0" />
  <xacro:fixed_joint name="fixed33" parent="trunk" child="trunk_filler" xyz="-${trunk_corner_radius/2} 0 0" rpy="0 0 0" />
  
  
 
  <xacro:link_sphere name="neck_roll_end" radius="0.001" color="DarkGray" padding="0.00" />
  <xacro:revolute_joint_x name="joint_n1" parent="trunk" child="neck_roll_end" xyz="0 0 ${trunk_dz}" rpy="0 0 0" sign="1" min="${neck3_min}" max="${neck3_max}"/>
  <xacro:link_sphere name="neck_pitch_end" radius="0.001" color="DarkGray" padding="0.00" />
  <xacro:revolute_joint_y name="joint_n2" parent="neck_roll_end" child="neck_pitch_end" xyz="0 0 0" rpy="0 0 0" sign="1" min="${neck2_min}" max="${neck2_max}"/>
  
  <xacro:link_cylinder_z name="neck" radius="${neck_radius}" length="${neck_dz-head_radius+neck_z_extention}" color="LightGray" padding="0.00" />
  <xacro:revolute_joint_z name="joint_n3" parent="neck_pitch_end" child="neck" xyz="0 0 ${-neck_z_extention}" rpy="0 0 0" sign="1" min="${neck1_min}" max="${neck1_max}"/>

  <xacro:link_sphere name="head" radius="${head_radius}" color="LightGray" padding="0.05" />
  <xacro:fixed_joint name="fixed4" parent="neck" child="head" xyz="0 0 ${neck_dz-head_radius+neck_z_extention}" rpy="0 0 0" />

  <xacro:link_cylinder_x name="left_eye" radius="${eye_radius}" length="${eye_length}" color="DarkGray" padding="0.00" />
  <xacro:fixed_joint name="fixed21" parent="head" child="left_eye" xyz="0 ${eye_separation/2} ${eye_height}" rpy="0 0 0" />
  <gazebo reference="left_eye"><material>Gazebo/Black</material></gazebo>

  <xacro:link_cylinder_x name="right_eye" radius="${eye_radius}" length="${eye_length}" color="DarkGray" padding="0.00" />
  <xacro:fixed_joint name="fixed22" parent="head" child="right_eye" xyz="0 ${-eye_separation/2} ${eye_height}" rpy="0 0 0" />
  <gazebo reference="right_eye"><material>Gazebo/Black</material></gazebo>




  <xacro:link_shoulder name="left_shoulder" dx="${shoulder_dx}" dy="${shoulder_dy}" dz="${shoulder_dz}" right="0" />
  <xacro:revolute_joint_y name="joint_la1" parent="trunk" child="left_shoulder" xyz="0 0 ${shoulder_zoffset-trunk_cylinder_dz-trunk_lower_dz}" rpy="0 ${la1} 0" sign="1" min="${arm1_min}" max="${arm1_max}"/>

  <xacro:link_arm name="left_arm" rot_joint_name="joint_la3" rot="${-la3}" rot_sign="-1" />
  <xacro:revolute_joint_x name="joint_la2" parent="left_shoulder_end" child="left_arm" xyz="0 0 0" rpy="${la2} 0 0" sign="1" min="${arm2_min}" max="${arm2_max}"/>

  <xacro:link_forearm name="left_forearm" rot_joint_name="joint_la5" rot="${-la5}" rot_sign="-1" />
  <xacro:revolute_joint_y name="joint_la4" parent="left_arm_end" child="left_forearm" xyz="0 0 0" rpy="0 ${la4} 0" sign="1" min="${arm4_min}" max="${arm4_max}"/>

  <xacro:link_hand name="left_hand" rot_joint_name="joint_la7" rot="${-la7}" rot_sign="-1" prefix="lh" />
  <xacro:revolute_joint_x name="joint_la6" parent="left_forearm_end" child="left_hand" xyz="0 0 0" rpy="${-la6} 0 0" sign="-1" min="${arm6_min}" max="${arm6_max}"/>




  <xacro:link_shoulder name="right_shoulder" dx="${shoulder_dx}" dy="${shoulder_dy}" dz="${shoulder_dz}" right="1"/>
  <xacro:revolute_joint_y name="joint_ra1" parent="trunk" child="right_shoulder" xyz="0 ${-shoulder_dy} ${shoulder_zoffset-trunk_cylinder_dz-trunk_lower_dz}" rpy="0 ${ra1} 0" sign="1" min="${arm1_min}" max="${arm1_max}"/>

  <xacro:link_arm name="right_arm" rot_joint_name="joint_ra3" rot="${ra3}" rot_sign="1" />
  <xacro:revolute_joint_x name="joint_ra2" parent="right_shoulder_end" child="right_arm" xyz="0 0 0" rpy="${-ra2} 0 0" sign="-1" min="${arm2_min}" max="${arm2_max}"/>

  <xacro:link_forearm name="right_forearm" rot_joint_name="joint_ra5" rot="${ra5}" rot_sign="1" />
  <xacro:revolute_joint_y name="joint_ra4" parent="right_arm_end" child="right_forearm" xyz="0 0 0" rpy="0 ${ra4} 0" sign="1" min="${arm4_min}" max="${arm4_max}"/>

  <xacro:link_hand name="right_hand" rot_joint_name="joint_ra7" rot="${ra7}" rot_sign="1" prefix="rh" />
  <xacro:revolute_joint_x name="joint_ra6" parent="right_forearm_end" child="right_hand" xyz="0 0 0" rpy="${ra6} 0 0" sign="1" min="${arm6_min}" max="${arm6_max}"/>






  <xacro:macro name="link_hand" params="name rot_joint_name rot rot_sign prefix" >
    <xacro:link_box_z name="${name}" dx="0.001" dy="0.001" dz="0.001" color="LightGray" padding="0.03" />
    <xacro:fixed_joint name="${name}_fj1" parent="${name}" child="${name}_start" xyz="0 0 ${-wrist_joint_radius}" rpy="0 0 0" />
    <xacro:link_box_z name="${name}_start" dx="${wrist_joint_radius*2}" dy="${wrist_joint_radius*2}" dz="${wrist_joint_radius}" color="LightGray" padding="0.03" />
    <xacro:link_box name="${name}_limb" dx="${hand_dx}" dy="${2*hand_dy/3}" dz="${hand_dz-wrist_joint_radius}" xyz="0 0 ${(hand_dz-wrist_joint_radius)/2}" color="LightGray" padding="0.03" />
    <xacro:revolute_joint_z name="${rot_joint_name}" parent="${name}_start" child="${name}_limb" xyz="${-palm_dx/2 + hand_dx/2} ${(hand_dy/2-hand_dy/3)*rot_sign} ${wrist_joint_radius-hand_dz}" rpy="0 0 ${rot}" sign="${rot_sign}" min="${arm7_min}" max="${arm7_max}"/>
    <xacro:link_box name="${name}_palm" dx="${palm_dx}" dy="${palm_dy}" dz="${palm_dz}" xyz="0 0 ${palm_dz/2}" color="LightGray" padding="0.03" />
    <xacro:fixed_joint name="${name}_fj2" parent="${name}_limb" child="${name}_palm" xyz="0 ${-rot_sign*hand_dy/4} ${hand_dz-wrist_joint_radius}" rpy="${3.1415-rot_sign*palm_roll} 0 0" />
    
    <xacro:link_box_z name="${name}_fing11" dx="${finger_dx}" dy="${finger_dy}" dz="${phalange1_dz}" color="MidGray" padding="0.03" />
    <xacro:revolute_joint_x name="${name}_j11" parent="${name}_palm" child="${name}_fing11" xyz="${finger_offset - 0*(finger_spacing+finger_dx)} 0 ${palm_dz}" rpy="${rot_sign*lh10} 0 0" sign="${rot_sign}" min="-1" max="1"/>

    <xacro:link_box_z name="${name}_fing12" dx="${finger_dx}" dy="${finger_dy}" dz="${phalange2_dz}" color="MidGray" padding="0.03" />
    <xacro:fixed_joint name="${name}_fj12" parent="${name}_fing11" child="${name}_fing12" xyz="0 0 ${phalange1_dz}" rpy="${rot_sign*lh11} 0 0" />
    
    <xacro:link_box_z name="${name}_fing21" dx="${finger_dx}" dy="${finger_dy}" dz="${phalange1_dz}" color="MidGray" padding="0.03" />
    <xacro:revolute_joint_x name="${name}_j21" parent="${name}_palm" child="${name}_fing21" xyz="${finger_offset - 1*(finger_spacing+finger_dx)} 0 ${palm_dz}" rpy="${rot_sign*lh20} 0 0" sign="${rot_sign}" min="-1" max="1"/>

    <xacro:link_box_z name="${name}_fing22" dx="${finger_dx}" dy="${finger_dy}" dz="${phalange2_dz}" color="MidGray" padding="0.03" />
    <xacro:fixed_joint name="${name}_fj22" parent="${name}_fing21" child="${name}_fing22" xyz="0 0 ${phalange1_dz}" rpy="${rot_sign*lh21} 0 0" />
    
    <xacro:link_box_z name="${name}_fing31" dx="${finger_dx}" dy="${finger_dy}" dz="${phalange1_dz}" color="MidGray" padding="0.03" />
    <xacro:revolute_joint_x name="${name}_j31" parent="${name}_palm" child="${name}_fing31" xyz="${finger_offset - 2*(finger_spacing+finger_dx)} 0 ${palm_dz}" rpy="${rot_sign*lh30} 0 0" sign="${rot_sign}" min="-1" max="1"/>

    <xacro:link_box_z name="${name}_fing32" dx="${finger_dx}" dy="${finger_dy}" dz="${phalange2_dz}" color="MidGray" padding="0.03" />
    <xacro:fixed_joint name="${name}_fj32" parent="${name}_fing31" child="${name}_fing32" xyz="0 0 ${phalange1_dz}" rpy="${rot_sign*lh31} 0 0" />
    
    <xacro:link_box_z name="${name}_fing41" dx="${finger_dx}" dy="${finger_dy}" dz="${phalange1_dz}" color="MidGray" padding="0.03" />
    <xacro:revolute_joint_x name="${name}_j41" parent="${name}_palm" child="${name}_fing41" xyz="${finger_offset - 3*(finger_spacing+finger_dx)} 0 ${palm_dz}" rpy="${rot_sign*lh40} 0 0" sign="${rot_sign}" min="-1" max="1"/>

    <xacro:link_box_z name="${name}_fing42" dx="${finger_dx}" dy="${finger_dy}" dz="${phalange2_dz}" color="MidGray" padding="0.03" />
    <xacro:fixed_joint name="${name}_fj42" parent="${name}_fing41" child="${name}_fing42" xyz="0 0 ${phalange1_dz}" rpy="${rot_sign*lh41} 0 0" />
    
    <xacro:link_box_z name="${name}_fing01" dx="${finger_dy}" dy="${finger_dx}" dz="${phalange1_dz}" color="MidGray" padding="0.03" />
    <xacro:revolute_joint_y name="${name}_j01" parent="${name}_limb" child="${name}_fing01" xyz="${hand_dx/2} 0 0" rpy="0 ${3.1415-lh00} 0" sign="1" min="-1" max="1"/>

    <xacro:link_box_z name="${name}_fing02" dx="${finger_dy}" dy="${finger_dx}" dz="${phalange2_dz}" color="MidGray" padding="0.03" />
    <xacro:revolute_joint_y name="${name}_j02" parent="${name}_fing01" child="${name}_fing02" xyz="0 0 ${phalange1_dz}" rpy="0 ${lh01} 0" sign="1" min="-1" max="1"/>
    
    <xacro:link_cylinder_z name="${name}_guard" length="${guard_dz}" radius="${guard_radius}" color="LightGray" padding="0.03" />
    <xacro:fixed_joint name="${name}_fjg" parent="${name}_limb" child="${name}_guard" xyz="${hand_dx/2} 0 ${-guard_dz/2}" rpy="0 0 0" />
    
    <link name="${name}_fkend">
      <xacro:inert mass="${default_link_mass}" />
      <xacro:visual_collision_cylinder xyz="0 0 0" rpy="0 0 0" radius="0" length="0" color="LightGray" padding="0" />
    </link>
    <xacro:fixed_joint name="${name}_fjfk" parent="${name}_limb" child="${name}_fkend" xyz="0 0 -0.1" rpy="0 1.57 0" />
        
    <gazebo reference="${name}_limb"><material>Gazebo/Blue</material></gazebo>
  </xacro:macro>

  <xacro:macro name="link_forearm" params="name rot_joint_name rot rot_sign" >
    <xacro:link_box_z name="${name}" dx="0.001" dy="0.001" dz="0.001" color="LightGray" padding="0.01" />
    <xacro:fixed_joint name="${name}_fj1" parent="${name}" child="${name}_start" xyz="0 0 ${-elbow_joint_radius}" rpy="0 0 0" />
    <xacro:link_box_z name="${name}_start" dx="${elbow_joint_radius*2}" dy="${forearm_radius*2}" dz="${elbow_joint_radius}" color="LightGray" padding="0.01" />
    <xacro:link_cylinder_z name="${name}_limb" length="${forearm_length-elbow_joint_radius-wrist_joint_radius}" radius="${forearm_radius}" color="LightGray" padding="0.01" />
    <xacro:revolute_joint_z name="${rot_joint_name}" parent="${name}_start" child="${name}_limb" xyz="${-elbow_joint_xoffset} 0 ${-forearm_length+wrist_joint_radius+elbow_joint_radius}" rpy="0 0 ${rot}" sign="${rot_sign}" min="${arm5_min}" max="${arm5_max}" />
    <xacro:link_cylinder_x_center name="${name}_end" length="${wrist_joint_radius*2}" radius="${wrist_joint_radius}" color="LightGray" padding="0.01" />
    <xacro:fixed_joint name="${name}_fj2" parent="${name}_limb" child="${name}_end" xyz="0 0 ${-wrist_joint_radius}" rpy="0 0 0" />
    <xacro:link_box_z name="${name}_endb" dx="${wrist_joint_radius*2}" dy="${wrist_joint_radius*2}" dz="${wrist_joint_radius}" color="LightGray" padding="0.01" />
    <xacro:fixed_joint name="${name}_fj3" parent="${name}_limb" child="${name}_endb" xyz="0 0 ${-wrist_joint_radius}" rpy="0 0 0" />
    <gazebo reference="${name}_limb"><material>Gazebo/Red</material></gazebo>
    <gazebo reference="${name}_end"><material>Gazebo/Green</material></gazebo>
  </xacro:macro>


  <xacro:macro name="link_arm" params="name rot_joint_name rot rot_sign" >
    <xacro:link_box_z name="${name}" dx="${shoulder_joint_radius*2}" dy="${shoulder_joint_radius*2}" dz="${-shoulder_joint_radius}" color="LightGray" padding="0.0" />
    <xacro:link_cylinder_z name="${name}_limb" length="${arm_length-shoulder_joint_radius-elbow_joint_radius}" radius="${arm_radius}" color="LightGray" padding="0.01" />
    <xacro:revolute_joint_z name="${rot_joint_name}" parent="${name}" child="${name}_limb" xyz="0 0 ${-arm_length+elbow_joint_radius}" rpy="0 0 ${rot}" sign="${rot_sign}" min="${arm3_min}" max="${arm3_max}"/>
    <xacro:link_cylinder_y_center name="${name}_end" length="${arm_radius*2}" radius="${elbow_joint_radius}" color="LightGray" padding="0.01" />
    <xacro:fixed_joint name="${name}_fj2" parent="${name}_limb" child="${name}_end" xyz="${elbow_joint_xoffset} 0 ${-elbow_joint_radius}" rpy="0 0 0" />
    <xacro:link_box_z name="${name}_endb" dx="${elbow_joint_radius*2}" dy="${arm_radius*2}" dz="${elbow_joint_radius}" color="LightGray" padding="0.01" />
    <xacro:fixed_joint name="${name}_fj3" parent="${name}_limb" child="${name}_endb" xyz="${elbow_joint_xoffset} 0 ${-elbow_joint_radius}" rpy="0 0 0" />    
    <gazebo reference="${name}_limb"><material>Gazebo/Blue</material></gazebo>
    <gazebo reference="${name}_end"><material>Gazebo/Green</material></gazebo>
  </xacro:macro>

  <xacro:macro name="link_shoulder" params="name dx dy dz right" >
    <xacro:link_box_y name="${name}" dx="${dx}" dy="${dy}" dz="${dz}" color="LightGray" padding="0.0" />
    <xacro:link_cylinder_x_center name="${name}_end" radius="${dz/2}" length="${dx}" color="LightGray" padding="0.01" />
    <xacro:fixed_joint name="${name}_fj" parent="${name}" child="${name}_end" xyz="0 ${dy-right*dy} 0" rpy="0 0 0" />
    <gazebo reference="${name}_end"><material>Gazebo/Green</material></gazebo>
  </xacro:macro>


  <xacro:macro name="link_cylinder_z" params="name radius length color padding">
    <link name="${name}">
      <xacro:inert mass="${default_link_mass}" />
      <xacro:visual_collision_cylinder xyz="0 0 ${length/2}" rpy="0 0 0" radius="${radius}" length="${length}" color="${color}" padding="${padding}" />
    </link>
    <gazebo reference="${name}"><turnGravityOff>true</turnGravityOff></gazebo>
  </xacro:macro>

  <xacro:macro name="massive_link_cylinder_z" params="name radius length mass color padding">
    <link name="${name}">
      <xacro:inert mass="${mass}" />
      <xacro:visual_collision_cylinder xyz="0 0 ${length/2}" rpy="0 0 0" radius="${radius}" length="${length}" color="${color}" padding="${padding}" />
    </link>
    <gazebo reference="${name}"><turnGravityOff>false</turnGravityOff></gazebo>
  </xacro:macro>
  
  <xacro:macro name="massive_link_box_z" params="name radius length mass color padding">
    <link name="${name}">
      <xacro:inert mass="${mass}" />
      <xacro:visual_collision_box dx="${radius*2}" dy="${radius*2}" dz="${length}" xyz="0 0 ${radius}" color="${color}" padding="${padding}" />
    </link>
    <gazebo reference="${name}"><turnGravityOff>false</turnGravityOff></gazebo>
  </xacro:macro>

  <xacro:macro name="link_cylinder_z_offset" params="name radius length z_offset color padding">
    <link name="${name}">
      <xacro:inert mass="${default_link_mass}" />
      <xacro:visual_collision_cylinder xyz="0 0 ${length/2+z_offset}" rpy="0 0 0" radius="${radius}" length="${length}" color="${color}" padding="${padding}" />
    </link>
    <gazebo reference="${name}"><turnGravityOff>true</turnGravityOff></gazebo>
  </xacro:macro>

  <xacro:macro name="link_cylinder_y" params="name radius length color padding">
    <link name="${name}">
      <xacro:inert mass="${default_link_mass}" />
      <xacro:visual_collision_cylinder y="0 ${length/2} 0" rpy="1.57 0 0" radius="${radius}" length="${length}" color="${color}" padding="${padding}" />
    </link>
    <gazebo reference="${name}"><turnGravityOff>true</turnGravityOff></gazebo>
  </xacro:macro>

  <xacro:macro name="link_cylinder_y_center" params="name radius length color padding">
    <link name="${name}">
      <xacro:inert mass="${default_link_mass}" />
      <xacro:visual_collision_cylinder xyz="0 0 0" rpy="1.57 0 0" radius="${radius}" length="${length}" color="${color}" padding="${padding}" />
    </link>
    <gazebo reference="${name}"><turnGravityOff>true</turnGravityOff></gazebo>
  </xacro:macro>

  <xacro:macro name="link_cylinder_x" params="name radius length color padding">
    <link name="${name}">
      <xacro:inert mass="${default_link_mass}" />
      <xacro:visual_collision_cylinder xyz="${length/2} 0 0" rpy="0 1.57 0" radius="${radius}" length="${length}" color="${color}" padding="${padding}" />
    </link>
    <gazebo reference="${name}"><turnGravityOff>true</turnGravityOff></gazebo>
  </xacro:macro>

  <xacro:macro name="link_cylinder_x_center" params="name radius length color padding">
    <link name="${name}">
      <xacro:inert mass="${default_link_mass}" />
      <xacro:visual_collision_cylinder xyz="0 0 0" rpy="0 1.57 0" radius="${radius}" length="${length}" color="${color}" padding="${padding}" />
    </link>
    <gazebo reference="${name}"><turnGravityOff>true</turnGravityOff></gazebo>
  </xacro:macro>

  <xacro:macro name="link_box_x" params="name dx dy dz color padding">
    <link name="${name}">
      <xacro:inert mass="${default_link_mass}" />
      <xacro:visual_collision_box xyz="${dx/2} 0 0" dx="${dx}" dy="${dy}" dz="${dz}" color="${color}" padding="${padding}" />
    </link>
    <gazebo reference="${name}"><turnGravityOff>true</turnGravityOff></gazebo>
  </xacro:macro>

  <xacro:macro name="link_box_y" params="name dx dy dz color padding">
    <link name="${name}">
      <xacro:inert mass="${default_link_mass}" />
      <xacro:visual_collision_box xyz="0 ${dy/2} 0" dx="${dx}" dy="${dy}" dz="${dz}" color="${color}" padding="${padding}" />
    </link>
    <gazebo reference="${name}"><turnGravityOff>true</turnGravityOff></gazebo>
  </xacro:macro>

  <xacro:macro name="link_box_z" params="name dx dy dz color padding">
    <link name="${name}">
      <xacro:inert mass="${default_link_mass}" />
      <xacro:visual_collision_box xyz="0 0 ${dz/2}" dx="${dx}" dy="${dy}" dz="${dz}" color="${color}" padding="${padding}" />
    </link>
    <gazebo reference="${name}"><turnGravityOff>true</turnGravityOff></gazebo>
  </xacro:macro>
  
  <xacro:macro name="link_box" params="name dx dy dz xyz color padding">
    <link name="${name}">
      <xacro:inert mass="${default_link_mass}" />
      <xacro:visual_collision_box xyz="${xyz}" dx="${dx}" dy="${dy}" dz="${dz}" color="${color}" padding="${padding}" />
    </link>
    <gazebo reference="${name}"><turnGravityOff>true</turnGravityOff></gazebo>
  </xacro:macro>

  <xacro:macro name="link_sphere" params="name radius color padding">
    <link name="${name}">
      <xacro:inert mass="${default_link_mass}" />
      <xacro:visual_collision_sphere xyz="0 0 0" radius="${radius}" color="${color}" padding="${padding}" />
    </link>
    <gazebo reference="${name}"><turnGravityOff>true</turnGravityOff></gazebo>
  </xacro:macro>

  <xacro:macro name="link_point" params="name color padding">
    <link name="${name}">
      <xacro:inert mass="${default_link_mass}" />
      <xacro:visual_collision_sphere xyz="0 0 0" radius="0.0001" color="${color}" padding="${padding}" />
    </link>
    <gazebo reference="${name}"><turnGravityOff>true</turnGravityOff></gazebo>
  </xacro:macro>

  <xacro:macro name="fixed_joint" params="name parent child xyz rpy">
    <joint name="${name}" type="fixed">
      <parent link="${parent}"/>
      <origin rpy="${rpy}" xyz="${xyz}"/>
      <child link="${child}"/>
    </joint>
  </xacro:macro>
  
  <xacro:macro name="revolute_joint_z" params="name parent child xyz rpy sign min max">
    <joint name="${name}" type="revolute">
      <parent link="${parent}"/>
      <origin rpy="${rpy}" xyz="${xyz}"/>
      <child link="${child}"/>
      <axis xyz="0 0 ${sign}" />
      <dynamics damping="${default_joint_damping}" friction="${default_joint_friction}" />
      <xacro:joint_limit min="${min}" max="${max}" />
    </joint>
  </xacro:macro>
  
  <xacro:macro name="revolute_joint_y" params="name parent child xyz rpy sign min max">
    <joint name="${name}" type="revolute">
      <parent link="${parent}"/>
      <origin rpy="${rpy}" xyz="${xyz}"/>
      <child link="${child}"/>
      <axis xyz="0 ${sign} 0" />
      <dynamics damping="${default_joint_damping}" friction="${default_joint_friction}" />
      <xacro:joint_limit min="${min}" max="${max}" />
    </joint>  
  </xacro:macro>

  <xacro:macro name="revolute_joint_x" params="name parent child xyz rpy sign min max">
    <joint name="${name}" type="revolute">
      <parent link="${parent}"/>
      <origin rpy="${rpy}" xyz="${xyz}"/>
      <child link="${child}"/>
      <axis xyz="${sign} 0 0" />
      <dynamics damping="${default_joint_damping}" friction="${default_joint_friction}" />
      <xacro:joint_limit min="${min}" max="${max}" />
    </joint>  
  </xacro:macro>

  <xacro:macro name="inert" params="mass">
    <inertial>
      <origin xyz="0 0 0" /> 
      <mass value="${mass}" />
      <inertia  ixx="0.0" ixy="0.0" ixz="0.0" iyy="0.0" iyz="0.0" izz="0.0" />
    </inertial>
  </xacro:macro>

  <xacro:macro name="joint_limit" params="min max">
    <limit lower="${min}" upper="${max}" effort="${max_effort}" velocity="${max_velocity}" />
    <safety_controller soft_lower_limit="${min}" soft_upper_limit="${max}" k_position="1e100" k_velocity="1e100" />
  </xacro:macro>

  <xacro:macro name="visual_collision_cylinder" params="length radius xyz rpy color padding">
    <visual>
      <origin xyz="${xyz}" rpy="${rpy}" />
      <geometry>
        <cylinder radius="${radius}" length="${length}" />
      </geometry>
      <material name="${color}" />
    </visual>
    <collision>
      <origin xyz="${xyz}" rpy="${rpy}" />
      <geometry>
        <cylinder radius="${radius+padding}" length="${length+padding*2}" />
      </geometry>
    </collision>
  </xacro:macro>
  
  <xacro:macro name="visual_collision_box" params="xyz dx dy dz color padding">
    <visual>
      <origin xyz="${xyz}"/>
      <geometry>
        <box size="${dx} ${dy} ${dz}" />
      </geometry>
      <material name="${color}" />
    </visual>
    <collision>
      <origin xyz="${xyz}"/>
      <geometry>
        <box size="${dx+padding*2} ${dy+padding*2} ${dz+padding*2}" />
      </geometry>
    </collision>
  </xacro:macro>
  
  <xacro:macro name="visual_collision_sphere" params="xyz radius color padding">
    <visual>
      <origin xyz="${xyz}"/>
      <geometry>
        <sphere radius="${radius}" />
      </geometry>
      <material name="${color}" />
    </visual>
    <collision>
      <origin xyz="${xyz}"/>
      <geometry>
        <sphere radius="${radius+padding}" />
      </geometry>
    </collision>
  </xacro:macro>




</robot>

